An intro to R with an Epi working example
…
library(tidyverse)
library(Epi)
library(knitr)
library(gridExtra)

Read, explore and manipulate data

Read data

The marathon data are available in a csv format at http://alecri.github.io/downloads/data/marathon.csv .

marathon <- read_csv("http://alecri.github.io/downloads/data/marathon.csv")
marathon

## # A tibble: 488 x 18
##       id    na nas135 female   age urinat3p prewt postwt wtdiff height
##    <dbl> <dbl> <chr>  <chr>  <dbl> <chr>    <dbl>  <dbl>  <dbl>  <dbl>
##  1     1   138 na >  female  24.2 >=3         NA   NA       NA   1.73
##  2     2   142 na >  male    44.3 <3          NA   NA       NA  NA   
##  3     3   151 na >  male    42.0 <3          NA   NA       NA  NA   
##  4     4   139 na >  male    28.2 >=3         NA   NA       NA   1.73
##  5     5   145 na >  female  30.2 <3          NA   50.7     NA  NA   
##  6     6   140 na >  female  28.3 <3          NA   55.7     NA   1.61
##  7     7   142 na >  male    34.4 <3          NA   59.3     NA  NA   
##  8     8   140 na >  male    26.2 <3          NA   59.8     NA  NA   
##  9     9   141 na >  male    50.4 <3          NA   64.8     NA  NA   
## 10    10   138 na >  male    49.4 <3          NA   68.2     NA  NA   
## #  with 478 more rows, and 8 more variables: bmi <dbl>, runtime <dbl>,
## #   trainpace <dbl>, prevmara <dbl>, fluidint <chr>, waterload <chr>,
## #   nsaid <chr>, wtdiffc <chr>
…
